{
  "iframe": "ressources/iframe.ts",
  "video": "ressources/video.ts",
  "spline": "OutilSpline.svelte",
  "test": "Test.svelte",
  "clavier": "ClavierTest.svelte",
  "version": "Version.svelte",
  "sandboxCE": "ressources/sandboxCE.ts"
}